32
6.0  0.0  0.0  0.0  6.0  0.0  0.0  0.0 1.0
B 0.0 0.0 0.0 0
N 1.0 0.0 0.0 0
C 0.0 1.0 0.0 0
C 1.0 1.0 0.0 0
B 0.0 2.0 0.0 1
N 1.0 2.0 0.0 1
C 0.0 3.0 0.0 1
C 1.0 3.0 0.0 1
B 0.0 4.0 0.0 2
N 1.0 4.0 0.0 2
C 0.0 5.0 0.0 2
C 1.0 5.0 0.0 2
B 2.0 0.0 0.0 3
N 3.0 0.0 0.0 3
C 2.0 1.0 0.0 3
C 3.0 1.0 0.0 3
B 2.0 4.0 0.0 4
N 3.0 4.0 0.0 4
C 2.0 5.0 0.0 4
C 3.0 5.0 0.0 4
B 4.0 0.0 0.0 5
N 5.0 0.0 0.0 5
C 4.0 1.0 0.0 5
C 5.0 1.0 0.0 5
B 4.0 2.0 0.0 6
N 5.0 2.0 0.0 6
C 4.0 3.0 0.0 6
C 5.0 3.0 0.0 6
B 4.0 4.0 0.0 7
N 5.0 4.0 0.0 7
C 4.0 5.0 0.0 7
C 5.0 5.0 0.0 7
