-1.1601141582519583
-1.1601141582519578
-1.1407614807352642
-1.1407614807352637
-1.1407614807352626
-1.1407614807352622
-1.1210747752411394
-1.121074775241139
-1.1102097285909158
-1.1102097285909145
-1.1102097285909145
-1.1102097285909143
-1.0899713469676964
-1.0899713469676962
-1.0899713469676957
-1.0899713469676953
-1.0710360513893216
-1.0710360513893213
-1.071036051389321
-1.0710360513893207
-1.05795388497759
-1.05795388497759
-1.050042912993697
-1.050042912993697
-1.0500429129936963
-1.0500429129936961
-1.026877374306719
-1.026877374306718
-1.026877374306718
-1.026877374306718
-1.0167689042535146
-1.0167689042535144
-1.0167689042535142
-1.0167689042535135
-1.0049622070584163
-1.0049622070584157
-1.0049622070584152
-1.004962207058415
-0.9824105154158295
-0.9824105154158295
-0.9824105154158294
-0.9824105154158294
-0.9738437177363759
-0.9738437177363759
-0.9701432487753165
-0.9701432487753158
-0.9701432487753154
-0.9701432487753142
-0.9594802324968743
-0.9594802324968741
-0.9594802324968739
-0.9594802324968738
-0.943244196535174
-0.9432441965351739
-0.9432441965351737
-0.9432441965351736
-0.925057028005322
-0.9250570280053217
-0.9250570280053213
-0.9250570280053213
-0.9229470201917652
-0.9229470201917651
-0.9229470201917647
-0.9229470201917642
-0.9193375386929145
-0.9193375386929145
-0.9193375386929142
-0.919337538692914
-0.9156287038426479
-0.9156287038426478
-0.9156287038426478
-0.9156287038426476
-0.8909813797455194
-0.8909813797455186
-0.8909813797455184
-0.8909813797455182
-0.881141529822848
-0.8811415298228477
-0.8811415298228477
-0.8811415298228467
-0.8754334834803691
-0.8754334834803691
-0.8754334834803689
-0.8754334834803685
-0.8735498975728128
-0.8735498975728127
-0.851514359586397
-0.8515143595863965
-0.8515143595863961
-0.8515143595863961
-0.8312418285290175
-0.8312418285290171
-0.831241828529017
-0.831241828529017
-0.820818312713603
-0.8208183127136027
-0.8208183127136027
-0.8208183127136026
-0.8203245908036826
-0.8203245908036821
-0.820324590803682
-0.820324590803682
-0.7997682705006156
-0.7997682705006156
-0.7997682705006154
-0.799768270500615
-0.792719578432304
-0.7927195784323039
-0.7927195784323037
-0.7927195784323036
-0.7735126993034419
-0.7735126993034417
-0.7735126993034412
-0.7735126993034411
-0.76445796576564
-0.7644579657656396
-0.7480863690500533
-0.7480863690500533
-0.7480863690500529
-0.7480863690500529
-0.7395865094679452
-0.7395865094679447
-0.739586509467944
-0.7395865094679438
-0.7134249609596174
-0.7134249609596174
-0.713424960959617
-0.7134249609596168
-0.6886114996688684
-0.688611499668868
-0.6886114996688679
-0.6886114996688669
-0.676492042764372
-0.6764920427643719
-0.6764920427643717
-0.6764920427643717
-0.6584484553994502
-0.65844845539945
-0.6182399836804503
-0.6182399836804502
-0.6182399836804502
-0.6182399836804497
-0.617693059669315
-0.6176930596693149
-0.6176930596693149
-0.6176930596693146
-0.5752277691701655
-0.5752277691701652
-0.5405534153996022
-0.540553415399602
-0.5405534153996019
-0.5405534153996013
-0.46559337237321746
-0.4655933723732167
-0.4655933723732165
-0.4655933723732162
-0.4067474614563032
-0.40674746145630314
-0.40674746145630314
-0.4067474614563029
-9.153036789962145e-05
-9.153036789941986e-05
9.153036790003165e-05
9.153036790019478e-05
0.406747461456303
0.4067474614563031
0.4067474614563032
0.4067474614563034
0.4655933723732162
0.4655933723732164
0.46559337237321663
0.4655933723732167
0.5405534153996013
0.5405534153996016
0.5405534153996017
0.540553415399602
0.5752277691701653
0.575227769170166
0.6176930596693142
0.6176930596693149
0.617693059669315
0.6176930596693151
0.6182399836804493
0.6182399836804495
0.6182399836804496
0.6182399836804502
0.6584484553994499
0.6584484553994499
0.6764920427643717
0.6764920427643717
0.6764920427643721
0.6764920427643721
0.6886114996688673
0.6886114996688675
0.6886114996688679
0.688611499668868
0.7134249609596166
0.7134249609596174
0.7134249609596174
0.7134249609596175
0.7395865094679445
0.7395865094679448
0.7395865094679449
0.739586509467945
0.7480863690500529
0.748086369050053
0.7480863690500532
0.7480863690500543
0.76445796576564
0.7644579657656401
0.7735126993034411
0.7735126993034414
0.7735126993034416
0.7735126993034421
0.7927195784323033
0.7927195784323036
0.7927195784323037
0.7927195784323042
0.7997682705006155
0.7997682705006155
0.7997682705006156
0.7997682705006165
0.8203245908036821
0.8203245908036823
0.8203245908036825
0.8203245908036825
0.8208183127136015
0.8208183127136028
0.8208183127136031
0.8208183127136032
0.8312418285290162
0.8312418285290167
0.8312418285290168
0.8312418285290171
0.8515143595863959
0.8515143595863962
0.8515143595863964
0.8515143595863965
0.8735498975728123
0.8735498975728125
0.8754334834803676
0.8754334834803686
0.8754334834803688
0.8754334834803689
0.8811415298228464
0.8811415298228478
0.881141529822848
0.881141529822848
0.8909813797455183
0.8909813797455185
0.8909813797455186
0.8909813797455187
0.9156287038426477
0.9156287038426477
0.915628703842648
0.915628703842648
0.9193375386929137
0.9193375386929142
0.9193375386929145
0.9193375386929146
0.922947020191765
0.9229470201917651
0.9229470201917651
0.9229470201917652
0.9250570280053215
0.9250570280053217
0.925057028005322
0.925057028005322
0.9432441965351734
0.9432441965351737
0.9432441965351739
0.943244196535174
0.9594802324968735
0.9594802324968739
0.9594802324968741
0.9594802324968742
0.970143248775315
0.9701432487753153
0.9701432487753154
0.9701432487753155
0.9738437177363755
0.9738437177363759
0.982410515415829
0.982410515415829
0.982410515415829
0.9824105154158292
1.0049622070584152
1.0049622070584154
1.0049622070584157
1.004962207058416
1.0167689042535135
1.0167689042535137
1.0167689042535142
1.0167689042535142
1.0268773743067185
1.0268773743067185
1.0268773743067188
1.026877374306719
1.0500429129936966
1.0500429129936966
1.0500429129936972
1.0500429129936972
1.0579538849775898
1.0579538849775902
1.0710360513893198
1.07103605138932
1.0710360513893202
1.071036051389321
1.089971346967696
1.0899713469676962
1.0899713469676962
1.0899713469676968
1.1102097285909136
1.1102097285909143
1.1102097285909145
1.1102097285909147
1.121074775241139
1.1210747752411392
1.1407614807352628
1.1407614807352637
1.140761480735264
1.1407614807352642
1.160114158251957
1.1601141582519578
